Day,Date,East,West,West New,South,RR Nagar,Bommanahalli,Yelahanka,Dasarahalli,Mahadevapura,Rest,Total
1,08/03/2020,0,0,0,0,0,0,0,0,0,0,0
2,09/03/2020,0,0,0,0,0,0,0,0,0,0,0
3,10/03/2020,0,0,0,0,0,0,0,0,0,0,0
4,11/03/2020,0,0,0,0,0,0,0,0,0,0,0
5,12/03/2020,0,0,0,0,0,0,0,0,0,0,0
6,13/03/2020,0,0,0,0,0,0,0,0,0,0,0
7,14/03/2020,0,0,0,0,0,0,0,0,0,0,0
8,15/03/2020,0,0,0,0,0,0,0,0,0,0,0
9,16/03/2020,0,0,0,0,0,0,0,0,0,0,0
10,17/03/2020,0,0,0,0,0,0,0,0,0,0,0
11,18/03/2020,0,0,0,0,0,0,0,0,0,0,0
12,19/03/2020,0,0,0,0,0,0,0,0,0,0,0
13,20/03/2020,0,0,0,0,0,0,0,0,0,0,0
14,21/03/2020,0,0,0,0,0,0,0,0,0,0,0
15,22/03/2020,0,0,0,0,0,0,0,0,0,0,0
16,23/03/2020,0,0,0,0,0,0,0,0,0,0,0
17,24/03/2020,0,0,0,0,0,0,0,0,0,0,0
18,25/03/2020,0,0,0,0,0,0,0,0,0,0,0
19,26/03/2020,0,0,0,0,0,0,0,0,0,1,1
20,27/03/2020,0,0,0,0,0,0,0,0,0,1,1
21,28/03/2020,0,0,0,0,0,0,0,0,0,1,1
22,29/03/2020,0,0,0,0,0,0,0,0,0,1,1
23,30/03/2020,0,0,0,0,0,0,0,0,0,1,1
24,31/03/2020,0,0,0,0,0,0,0,0,0,1,1
25,01/04/2020,0,0,0,0,0,0,0,0,0,1,1
26,02/04/2020,0,0,0,0,0,0,0,0,0,1,1
27,03/04/2020,0,0,0,0,0,0,0,0,0,1,1
28,04/04/2020,0,0,0,0,0,0,0,0,0,1,1
29,05/04/2020,0,0,0,0,0,0,0,0,0,1,1
30,06/04/2020,0,0,0,0,0,0,0,0,0,1,1
31,07/04/2020,0,0,0,0,0,0,0,0,0,1,1
32,08/04/2020,0,0,0,0,0,0,0,0,0,1,1
33,09/04/2020,0,0,0,0,0,0,0,0,0,1,1
34,10/04/2020,0,0,0,0,0,0,0,0,0,1,1
35,11/04/2020,0,0,0,0,0,0,0,0,0,1,1
36,12/04/2020,0,0,0,0,0,0,0,0,0,1,1
37,13/04/2020,0,0,0,0,0,0,0,0,0,1,1
38,14/04/2020,0,0,0,0,0,0,0,0,0,1,1
39,15/04/2020,0,0,0,0,0,0,0,0,0,1,1
40,16/04/2020,1,0,0,0,0,0,0,0,0,1,2
41,17/04/2020,1,0,0,0,0,0,0,0,0,1,2
42,18/04/2020,1,0,0,0,0,0,0,0,0,1,2
43,19/04/2020,1,0,0,0,0,0,0,0,0,1,2
44,20/04/2020,1,2,2,0,0,0,0,0,0,1,4
45,21/04/2020,1,2,0,0,0,0,0,0,0,1,4
46,22/04/2020,1,2,0,0,0,0,0,0,0,1,4
47,23/04/2020,1,2,0,0,0,0,0,0,0,1,4
48,24/04/2020,1,2,0,0,0,0,0,0,0,1,4
49,25/04/2020,1,2,0,0,0,0,0,0,0,1,4
50,26/04/2020,1,2,0,0,0,0,0,0,0,1,4
51,27/04/2020,1,2,0,2,0,0,0,0,0,1,6
52,28/04/2020,1,2,0,2,0,0,0,0,0,1,6
53,29/04/2020,1,2,0,2,0,0,0,0,0,1,6
54,30/04/2020,1,2,0,2,0,0,0,0,0,1,6
55,01/05/2020,1,2,0,2,0,0,0,0,0,1,6
56,02/05/2020,1,2,0,3,0,0,0,0,0,1,7
57,03/05/2020,1,2,0,3,0,0,0,0,0,1,7
58,04/05/2020,1,2,0,3,0,0,0,0,0,1,7
59,05/05/2020,1,2,0,3,0,0,0,0,0,1,7
60,06/05/2020,1,2,0,3,0,0,0,0,0,1,7
61,07/05/2020,1,2,0,3,0,0,0,0,0,1,7
62,08/05/2020,1,2,0,3,0,0,0,0,0,1,7
63,09/05/2020,1,2,0,3,0,0,0,0,0,1,7
64,10/05/2020,2,2,0,3,0,0,0,0,0,1,8
65,11/05/2020,2,2,0,3,0,0,0,0,0,1,8
66,12/05/2020,2,2,0,3,0,0,0,0,0,1,8
67,13/05/2020,2,2,0,3,0,0,0,0,0,1,8
68,14/05/2020,2,2,0,3,0,0,0,0,0,1,8
69,15/05/2020,2,2,0,3,0,0,0,0,0,1,8
70,16/05/2020,2,2,0,3,0,0,0,0,0,1,8
71,17/05/2020,2,2,0,3,0,0,0,0,0,1,8
72,18/05/2020,2,2,0,3,0,0,0,0,0,1,8
73,19/05/2020,2,2,0,3,1,0,0,0,0,1,9
74,20/05/2020,2,2,0,3,1,0,0,0,0,1,9
75,21/05/2020,2,2,0,3,1,0,0,0,0,1,9
76,22/05/2020,2,2,0,3,1,0,0,0,0,1,9
77,23/05/2020,3,2,0,3,1,0,0,0,0,2,11
78,24/05/2020,3,2,0,3,1,0,0,0,0,2,11
79,25/05/2020,3,2,0,3,1,0,0,0,0,2,11
80,26/05/2020,3,2,0,3,1,0,0,0,0,2,11
81,27/05/2020,3,2,0,3,1,0,0,0,0,2,11
82,28/05/2020,3,2,0,3,1,0,0,0,0,2,11
83,29/05/2020,3,2,0,3,1,0,0,0,0,2,11
84,30/05/2020,3,2,0,3,1,0,0,0,0,2,11
85,31/05/2020,3,2,0,3,1,0,0,0,0,2,11
86,01/06/2020,3,2,0,3,1,1,0,0,0,2,12
87,02/06/2020,3,2,0,3,1,1,0,0,0,2,12
88,03/06/2020,3,2,0,3,1,1,0,0,0,2,12
89,04/06/2020,3,2,0,3,1,1,0,0,0,4,14
90,05/06/2020,3,2,0,3,1,1,0,0,0,4,14
91,06/06/2020,3,2,0,3,1,1,0,0,0,4,14
92,07/06/2020,3,3,1,3,1,1,0,0,0,5,16
93,08/06/2020,3,4,1,3,1,1,0,0,0,7,19
94,09/06/2020,4,4,0,5,1,2,0,0,0,4,20
95,10/06/2020,4,5,1,5,1,2,0,0,0,5,22
96,11/06/2020,4,7,2,5,1,2,0,0,0,4,23
97,12/06/2020,6,7,0,5,1,2,0,0,0,7,28
98,13/06/2020,6,7,0,5,1,2,0,0,0,9,30
99,14/06/2020,8,8,1,6,1,3,0,0,0,10,36
100,15/06/2020,10,10,2,6,1,3,0,0,0,7,37
101,16/06/2020,12,10,0,6,1,3,0,0,0,9,41
102,17/06/2020,13,11,1,6,2,3,0,0,0,13,48
103,18/06/2020,13,11,0,6,2,3,0,0,0,15,50
104,19/06/2020,13,11,0,6,2,4,1,0,0,22,59
105,20/06/2020,15,11,0,7,2,5,1,0,0,21,62
106,21/06/2020,15,11,0,8,2,6,1,0,0,21,64
107,22/06/2020,15,16,5,10,2,6,1,0,0,15,65
108,23/06/2020,16,17,1,10,2,6,1,0,0,21,73
109,24/06/2020,16,17,0,11,2,7,3,0,0,19,75
110,25/06/2020,16,17,0,11,2,7,4,0,0,21,78
111,26/06/2020,16,17,0,11,2,7,4,0,0,24,81
112,27/06/2020,16,17,0,11,2,7,4,0,0,24,81
113,28/06/2020,16,17,0,11,2,7,4,0,0,24,81
114,29/06/2020,,,0,,,,,,,,0
115,30/06/2020,,,0,,,,,,,,0
116,01/07/2020,,,0,,,,,,,,0
117,02/07/2020,,,0,,,,,,,,0
118,03/07/2020,18,18,18,15,4,6,4,0,1,13,79
119,04/07/2020,18,19,1,16,4,7,4,0,1,54,123
120,05/07/2020,18,19,0,16,4,7,7,0,1,74,146
121,06/07/2020,28,19,0,24,4,11,4,5,5,12,112
122,07/07/2020,28,19,0,24,4,11,4,5,5,13,113
123,08/07/2020,39,29,10,35,5,12,9,6,7,36,178
124,09/07/2020,,,,,,,,,,,0
125,10/07/2020,,,,,,,,,,,0
126,11/07/2020,,,,,,,,,,,0
127,12/07/2020,,,,,,,,,,,0
128,13/07/2020,,,,,,,,,,,0
129,14/07/2020,,,,,,,,,,,0
130,15/07/2020,,,,,,,,,,,0
131,16/07/2020,,,,,,,,,,,0
132,17/07/2020,,,,,,,,,,,0
133,18/07/2020,,,,,,,,,,,0
134,19/07/2020,,,,,,,,,,,0
135,20/07/2020,,,,,,,,,,,0
136,21/07/2020,,,,,,,,,,,0
137,22/07/2020,,,,,,,,,,,0
138,23/07/2020,,,,,,,,,,,0
139,24/07/2020,,,,,,,,,,,0
140,25/07/2020,,,,,,,,,,,0
141,26/07/2020,,,,,,,,,,,0
142,27/07/2020,,,,,,,,,,,0
143,28/07/2020,,,,,,,,,,,0
144,29/07/2020,,,,,,,,,,,0
145,30/07/2020,,,,,,,,,,,0
146,31/07/2020,,,,,,,,,,,0
